14 第十三课 ggplot绘图 – R 编程基础讲义（黄利东）
…
(18)实际操作–以diamonds数据为例，按照color和clarity分类计算平均价格（把代码和结果粘贴下边，不要截图！！）

Code

library(tidyverse)
diamonds %>% group_by(color,clarity) %>% summarise(mean(price))

# A tibble: 56 × 3
# Groups:   color [7]
   color clarity `mean(price)`
   <ord> <ord>           <dbl>
 1 D     I1              3863.
 2 D     SI2             3931.
 3 D     SI1             2976.
 4 D     VS2             2587.
 5 D     VS1             3030.
 6 D     VVS2            3351.
 7 D     VVS1            2948.
 8 D     IF              8307.
 9 E     I1              3488.
10 E     SI2             4174.
# ℹ 46 more rows
…
